/storage/scratch/trm0213/125452
/home/trm0213/Workshop_relativity/2019/Workshop_relat/radial_proba/Results/non-rela

  DIRAC pam script running:

  user           : trm0213
  machine        : c12-2-2.local
  date and time  : 2019-07-23 08:13:31.827292
  input dir      : /storage/scratch/trm0213/125452
  pam command    : /home/trm0213/DIRAC-18.0-mpi/build/pam
  all pam args   : ['--mol=Pb.xyz', '--inp=Pb.inp', '--noarch', '--get', 'DFCOED=nr.df']
  executable     : /home/trm0213/DIRAC-18.0-mpi/build/dirac.x
  scratch dir    : /home/trm0213/DIRAC_scratch_directory/trm0213/DIRAC_Pb_Pb_87464 (availspace=2324.322[GB])
  output file    : Pb_Pb.out
  DIRAC run      : parallel (launcher: /share/apps/INTEL/psxe17/compilers_and_libraries_2017.0.098/linux/mpi/intel64/bin/mpirun)
  local disks    : False
  rsh/rcp        : ssh / scp
  machine file   : None
  Setting MKL_NUM_THREADS=1
  Setting MKL_DYNAMIC="FALSE"
  Setting OMP_NUM_THREADS=1
  Setting OMP_DYNAMIC="FALSE"
  INFO: Variables set by user are not overwritten by pam. 

  Creating the scratch directory.
  Copying /home/trm0213/DIRAC-18.0-mpi/build/dirac.x to /home/trm0213/DIRAC_scratch_directory/trm0213/DIRAC_Pb_Pb_87464/dirac.x
  Copying Pb.xyz to /home/trm0213/DIRAC_scratch_directory/trm0213/DIRAC_Pb_Pb_87464/MOLECULE.XYZ
  Copying Pb.inp to /home/trm0213/DIRAC_scratch_directory/trm0213/DIRAC_Pb_Pb_87464/DIRAC.INP
  Basis set libraries (default)    : /storage/scratch/trm0213/125452
                        /home/trm0213/DIRAC-18.0-mpi/build/basis
                        /home/trm0213/DIRAC-18.0-mpi/build/basis_dalton
                        /home/trm0213/DIRAC-18.0-mpi/build/basis_ecp
  DIRAC command  : mpirun -np 8 /home/trm0213/DIRAC_scratch_directory/trm0213/DIRAC_Pb_Pb_87464/dirac.x (PID=87467)
  content of the (master) scratch directory
  ------------------------------------------------------------------------------
                     name    size (MB)    last accessed
  ------------------------------------------------------------------------------
                   DFFOCK      1.567   07/23/2019 08:13:35 AM
                   DFDIIS      0.001   07/23/2019 08:13:36 AM
                   DFFCK2      0.961   07/23/2019 08:13:39 AM
                DIRAC.INP      0.000   07/23/2019 08:13:33 AM
                   DFCMOS      0.174   07/23/2019 08:13:37 AM
                   DFEVEC      1.567   07/23/2019 08:13:35 AM
                  dirac.x     81.726   07/23/2019 08:13:33 AM
                   DFCYCL      0.001   07/23/2019 08:13:35 AM
                 AOPROPER      1.449   07/23/2019 08:13:35 AM
                   DFCOEF      0.228   07/23/2019 08:13:38 AM
                   DFFCK1      0.481   07/23/2019 08:13:35 AM
                   DFDENS      0.961   07/23/2019 08:13:38 AM
             interface_mo      0.001   07/23/2019 08:13:35 AM
                  MNF.INP      0.002   07/23/2019 08:13:34 AM
                  LOWDMAT      0.206   07/23/2019 08:13:35 AM
             MOLECULE.XYZ      0.000   07/23/2019 08:13:33 AM
              DFCOEF.BEST      0.228   07/23/2019 08:13:36 AM
                   DFFCKT      0.961   07/23/2019 08:13:35 AM
                dirac.xml      0.003   07/23/2019 08:13:34 AM
             interface_ao      0.007   07/23/2019 08:13:35 AM
                  AOMOMAT      0.413   07/23/2019 08:13:35 AM
  ------------------------------------------------------------------------------
      Total size of all files :      90.937  MB 
      Disk info:  used    available   capacity [GB]
               6473.388   2324.235     8797.623 

  going to delete the scratch directory ... done

  exit date      : 2019-07-23 08:13:39.379801
  elapsed time   : 00h00m07s
  exit           : normal

  output lines containing warnings:
 WARNING : linear symmetry is not implemented for spinfree yet

