**DIRAC
.TITLE
 C atom
.WAVE FUNCTION
.ANALYZE
**GENERAL
**INTEGRALS
*READIN
.UNCONTRACTED
**HAMILTONIAN
.DOSSSS
**WAVE FUNCTION
.SCF
.RESOLVE
*SCF
.CLOSED SHELL
4 0
.OPEN SHELL
1
2/0,6
.EVCCNV
1.0d-05
**ANALYZE
.MULPOP
*MULPOP
.LABEL
SHELL
.VECPOP
all
all
*END OF

&GOSCIP IPRNT=5 &END
