**DIRAC
.TITLE
  Pb atom
.WAVE FUNCTION
.ANALYZE
**GENERAL
**INTEGRALS
*READIN
.UNCONTRACTED
**HAMILTONIAN
.NONREL
**WAVE FUNCTION
.SCF
*SCF
.CLOSED SHELL
42 38
.OPEN SHELL
1
2/0,6
**ANALYZE
.MULPOP
*MULPOP
.VECPOP
 1..oo
 1..oo
.LABEL
SHELL
**MOLECULE
*BASIS
.DEFAULT
 dyall.v2z
# FOR RADIAL PLOTS
#**VISUAL
#.DENSITY
# DFCOEF
#.RADIAL
# 0.0 0.0 0.0
# 7.0
# 2500
#.OCCUPATION
# 1
# 2 10-16 1.0  ! 6s 1/2
*END OF
**END OF

